C:\Users\Training\Desktop\mobexAdmin\src\main\java\com\mycompany\Controller\ConstantController.java
C:\Users\Training\Desktop\mobexAdmin\src\main\java\com\mycompany\Facade\RemittanceTrailFacade.java
C:\Users\Training\Desktop\mobexAdmin\src\main\java\com\mycompany\Entity\RemittanceTrail.java
C:\Users\Training\Desktop\mobexAdmin\src\main\java\com\mycompany\Controller\CfgRemittanceStatusController.java
C:\Users\Training\Desktop\mobexAdmin\src\main\java\com\mycompany\Controller\RemittanceTrailController.java
C:\Users\Training\Desktop\mobexAdmin\src\main\java\com\mycompany\Controller\AppuserController.java
C:\Users\Training\Desktop\mobexAdmin\src\main\java\com\mycompany\Facade\RemittanceFacade.java
C:\Users\Training\Desktop\mobexAdmin\src\main\java\com\mycompany\Facade\AbstractFacade.java
C:\Users\Training\Desktop\mobexAdmin\src\main\java\com\mycompany\Entity\Remittance.java
C:\Users\Training\Desktop\mobexAdmin\src\main\java\com\mycompany\Entity\Appuser.java
C:\Users\Training\Desktop\mobexAdmin\src\main\java\com\mycompany\Entity\Constant.java
C:\Users\Training\Desktop\mobexAdmin\src\main\java\com\mycompany\Controller\DeviceController.java
C:\Users\Training\Desktop\mobexAdmin\src\main\java\com\mycompany\Controller\util\PaginationHelper.java
C:\Users\Training\Desktop\mobexAdmin\src\main\java\com\mycompany\Facade\ConstantFacade.java
C:\Users\Training\Desktop\mobexAdmin\src\main\java\com\mycompany\Controller\util\JsfUtil.java
C:\Users\Training\Desktop\mobexAdmin\src\main\java\com\mycompany\Entity\CfgRemittanceStatus.java
C:\Users\Training\Desktop\mobexAdmin\src\main\java\com\mycompany\Controller\RemittanceController.java
C:\Users\Training\Desktop\mobexAdmin\src\main\java\com\mycompany\Facade\AppuserFacade.java
C:\Users\Training\Desktop\mobexAdmin\src\main\java\com\mycompany\Facade\DeviceFacade.java
C:\Users\Training\Desktop\mobexAdmin\src\main\java\com\mycompany\Entity\Device.java
C:\Users\Training\Desktop\mobexAdmin\src\main\java\com\mycompany\Facade\CfgRemittanceStatusFacade.java
